CD_MUNICIPIO,NM_MUNICIPIO,NR_ZONA,CD_CARGO,DS_CARGO,SQ_CANDIDATO,NR_CANDIDATO,NM_CANDIDATO,NM_URNA_CANDIDATO,NM_SOCIAL_CANDIDATO,CD_SITUACAO_CANDIDATURA,DS_SITUACAO_CANDIDATURA,CD_DETALHE_SITUACAO_CAND,DS_DETALHE_SITUACAO_CAND,TP_AGREMIACAO,NR_PARTIDO,SG_PARTIDO,NM_PARTIDO,NR_FEDERACAO,NM_FEDERACAO,SG_FEDERACAO,DS_COMPOSICAO_FEDERACAO,SQ_COLIGACAO,NM_COLIGACAO,DS_COMPOSICAO_COLIGACAO,ST_VOTO_EM_TRANSITO,QT_VOTOS_NOMINAIS,NM_TIPO_DESTINACAO_VOTOS,QT_VOTOS_NOMINAIS_VALIDOS,CD_SIT_TOT_TURNO,DS_SIT_TOT_TURNO
13447,CATUNDA,54,6,Deputado Federal,60001633773,1977,ELISABETH BARBOSA MOREIRA,BETH MOURA,#NULO#,12,APTO,2,DEFERIDO,Partido isolado,19,PODE,Podemos,-1,#NULO#,#NULO#,#NULO#,60001682563,PARTIDO ISOLADO,PODE,N,0,Válido,0,4,NÃO ELEITO
14796,MORRINHOS,44,6,Deputado Federal,60001633774,1920,JOSÉ IZAIAS NEPOMUCENO DE CARVALHO,IZAIAS COCADINHA,#NULO#,12,APTO,2,DEFERIDO,Partido isolado,19,PODE,Podemos,-1,#NULO#,#NULO#,#NULO#,60001682563,PARTIDO ISOLADO,PODE,N,0,Válido,0,4,NÃO ELEITO
13870,FARIAS BRITO,62,6,Deputado Federal,60001633775,1922,RAPHAEL STHEFESON COSTA FONTENELE,RAPHAEL FONTENELE,#NULO#,12,APTO,2,DEFERIDO,Partido isolado,19,PODE,Podemos,-1,#NULO#,#NULO#,#NULO#,60001682563,PARTIDO ISOLADO,PODE,N,1,Válido,1,4,NÃO ELEITO
13030,ACARAÚ,30,6,Deputado Federal,60001633775,1922,RAPHAEL STHEFESON COSTA FONTENELE,RAPHAEL FONTENELE,#NULO#,12,APTO,2,DEFERIDO,Partido isolado,19,PODE,Podemos,-1,#NULO#,#NULO#,#NULO#,60001682563,PARTIDO ISOLADO,PODE,N,0,Válido,0,4,NÃO ELEITO
13129,BARREIRA,52,6,Deputado Federal,60001633775,1922,RAPHAEL STHEFESON COSTA FONTENELE,RAPHAEL FONTENELE,#NULO#,12,APTO,2,DEFERIDO,Partido isolado,19,PODE,Podemos,-1,#NULO#,#NULO#,#NULO#,60001682563,PARTIDO ISOLADO,PODE,N,0,Válido,0,4,NÃO ELEITO
13897,FORTALEZA,117,6,Deputado Federal,60001633776,1900,SEBASTIÃO GLEIDISTON DE SOUSA PAIVA,PAIVA,#NULO#,12,APTO,2,DEFERIDO,Partido isolado,19,PODE,Podemos,-1,#NULO#,#NULO#,#NULO#,60001682563,PARTIDO ISOLADO,PODE,N,1,Válido,1,4,NÃO ELEITO
14931,PACAJUS,49,6,Deputado Federal,60001633776,1900,SEBASTIÃO GLEIDISTON DE SOUSA PAIVA,PAIVA,#NULO#,12,APTO,2,DEFERIDO,Partido isolado,19,PODE,Podemos,-1,#NULO#,#NULO#,#NULO#,60001682563,PARTIDO ISOLADO,PODE,N,1,Válido,1,4,NÃO ELEITO
13897,FORTALEZA,94,6,Deputado Federal,60001633776,1900,SEBASTIÃO GLEIDISTON DE SOUSA PAIVA,PAIVA,#NULO#,12,APTO,2,DEFERIDO,Partido isolado,19,PODE,Podemos,-1,#NULO#,#NULO#,#NULO#,60001682563,PARTIDO ISOLADO,PODE,N,0,Válido,0,4,NÃO ELEITO
13102,QUITERIANÓPOLIS,99,6,Deputado Federal,60001633776,1900,SEBASTIÃO GLEIDISTON DE SOUSA PAIVA,PAIVA,#NULO#,12,APTO,2,DEFERIDO,Partido isolado,19,PODE,Podemos,-1,#NULO#,#NULO#,#NULO#,60001682563,PARTIDO ISOLADO,PODE,N,0,Válido,0,4,NÃO ELEITO
13137,ALTO SANTO,86,6,Deputado Federal,60001633776,1900,SEBASTIÃO GLEIDISTON DE SOUSA PAIVA,PAIVA,#NULO#,12,APTO,2,DEFERIDO,Partido isolado,19,PODE,Podemos,-1,#NULO#,#NULO#,#NULO#,60001682563,PARTIDO ISOLADO,PODE,N,0,Válido,0,4,NÃO ELEITO
13315,ASSARÉ,18,6,Deputado Federal,60001633777,1974,ROSÉLIA FREITAS MARTINS,ROSE MARTINS CANTORA,#NULO#,12,APTO,2,DEFERIDO,Partido isolado,19,PODE,Podemos,-1,#NULO#,#NULO#,#NULO#,60001682563,PARTIDO ISOLADO,PODE,N,0,Válido,0,4,NÃO ELEITO
15938,ICAPUÍ,8,6,Deputado Federal,60001633777,1974,ROSÉLIA FREITAS MARTINS,ROSE MARTINS CANTORA,#NULO#,12,APTO,2,DEFERIDO,Partido isolado,19,PODE,Podemos,-1,#NULO#,#NULO#,#NULO#,60001682563,PARTIDO ISOLADO,PODE,N,0,Válido,0,4,NÃO ELEITO
14850,NOVA OLINDA,53,6,Deputado Federal,60001633778,1918,ADRIANO PEREIRA DA ROCHA,ADRIANO PEREIRA,#NULO#,12,APTO,2,DEFERIDO,Partido isolado,19,PODE,Podemos,-1,#NULO#,#NULO#,#NULO#,60001682563,PARTIDO ISOLADO,PODE,N,0,Válido,0,4,NÃO ELEITO
14311,ITAPIÚNA,105,6,Deputado Federal,60001633779,1907,EMMANUEL DE SOUSA AGUIAR,BISPO EMMANUEL,#NULO#,12,APTO,2,DEFERIDO,Partido isolado,19,PODE,Podemos,-1,#NULO#,#NULO#,#NULO#,60001682563,PARTIDO ISOLADO,PODE,N,0,Válido,0,4,NÃO ELEITO
13366,TARRAFAS,18,6,Deputado Federal,60001633779,1907,EMMANUEL DE SOUSA AGUIAR,BISPO EMMANUEL,#NULO#,12,APTO,2,DEFERIDO,Partido isolado,19,PODE,Podemos,-1,#NULO#,#NULO#,#NULO#,60001682563,PARTIDO ISOLADO,PODE,N,0,Válido,0,4,NÃO ELEITO
13137,ALTO SANTO,86,6,Deputado Federal,60001633781,1924,JOICIANA SOUSA MATOS CANUTO,JOICIANA CANUTO SEREIA,#NULO#,12,APTO,2,DEFERIDO,Partido isolado,19,PODE,Podemos,-1,#NULO#,#NULO#,#NULO#,60001682563,PARTIDO ISOLADO,PODE,N,0,Válido,0,4,NÃO ELEITO
14850,NOVA OLINDA,53,6,Deputado Federal,60001633781,1924,JOICIANA SOUSA MATOS CANUTO,JOICIANA CANUTO SEREIA,#NULO#,12,APTO,2,DEFERIDO,Partido isolado,19,PODE,Podemos,-1,#NULO#,#NULO#,#NULO#,60001682563,PARTIDO ISOLADO,PODE,N,0,Válido,0,4,NÃO ELEITO
15954,ITAREMA,98,6,Deputado Federal,60001633781,1924,JOICIANA SOUSA MATOS CANUTO,JOICIANA CANUTO SEREIA,#NULO#,12,APTO,2,DEFERIDO,Partido isolado,19,PODE,Podemos,-1,#NULO#,#NULO#,#NULO#,60001682563,PARTIDO ISOLADO,PODE,N,0,Válido,0,4,NÃO ELEITO
15598,SOBRAL,24,6,Deputado Federal,60001633781,1924,JOICIANA SOUSA MATOS CANUTO,JOICIANA CANUTO SEREIA,#NULO#,12,APTO,2,DEFERIDO,Partido isolado,19,PODE,Podemos,-1,#NULO#,#NULO#,#NULO#,60001682563,PARTIDO ISOLADO,PODE,N,8,Válido,8,4,NÃO ELEITO
13870,FARIAS BRITO,62,6,Deputado Federal,60001633781,1924,JOICIANA SOUSA MATOS CANUTO,JOICIANA CANUTO SEREIA,#NULO#,12,APTO,2,DEFERIDO,Partido isolado,19,PODE,Podemos,-1,#NULO#,#NULO#,#NULO#,60001682563,PARTIDO ISOLADO,PODE,N,0,Válido,0,4,NÃO ELEITO
14630,MAURITI,76,6,Deputado Federal,60001633783,1919,GILBERTO LINARD ROCHA JÚNIOR,MATHEUS LINARD,#NULO#,12,APTO,2,DEFERIDO,Partido isolado,19,PODE,Podemos,-1,#NULO#,#NULO#,#NULO#,60001682563,PARTIDO ISOLADO,PODE,N,1,Válido,1,4,NÃO ELEITO
15610,SOLONÓPOLE,55,6,Deputado Federal,60001646929,1926,JOSE DANIEL FERREIRA FONTENELE,DANIEL FONTENELE,#NULO#,12,APTO,2,DEFERIDO,Partido isolado,19,PODE,Podemos,-1,#NULO#,#NULO#,#NULO#,60001682563,PARTIDO ISOLADO,PODE,N,0,Válido,0,4,NÃO ELEITO
15750,UMARI,15,6,Deputado Federal,60001646929,1926,JOSE DANIEL FERREIRA FONTENELE,DANIEL FONTENELE,#NULO#,12,APTO,2,DEFERIDO,Partido isolado,19,PODE,Podemos,-1,#NULO#,#NULO#,#NULO#,60001682563,PARTIDO ISOLADO,PODE,N,0,Válido,0,4,NÃO ELEITO
15237,PORTEIRAS,70,6,Deputado Federal,60001645840,2015,FRANCISCO JOSE DE CARVALHO FERREIRA,PASTOR CARVALHO,#NULO#,12,APTO,2,DEFERIDO,Partido isolado,20,PSC,Partido Social Cristão,-1,#NULO#,#NULO#,#NULO#,60001683165,PARTIDO ISOLADO,PSC,N,0,Válido,0,4,NÃO ELEITO
13951,GRANJA,25,6,Deputado Federal,60001645840,2015,FRANCISCO JOSE DE CARVALHO FERREIRA,PASTOR CARVALHO,#NULO#,12,APTO,2,DEFERIDO,Partido isolado,20,PSC,Partido Social Cristão,-1,#NULO#,#NULO#,#NULO#,60001683165,PARTIDO ISOLADO,PSC,N,0,Válido,0,4,NÃO ELEITO
15075,PARAMBU,19,6,Deputado Federal,60001645843,2010,JESSICA CARVALHO FREITAS,JESSICA FREITAS,#NULO#,12,APTO,2,DEFERIDO,Partido isolado,20,PSC,Partido Social Cristão,-1,#NULO#,#NULO#,#NULO#,60001683165,PARTIDO ISOLADO,PSC,N,0,Válido,0,4,NÃO ELEITO
15717,TRAIRI,97,6,Deputado Federal,60001645843,2010,JESSICA CARVALHO FREITAS,JESSICA FREITAS,#NULO#,12,APTO,2,DEFERIDO,Partido isolado,20,PSC,Partido Social Cristão,-1,#NULO#,#NULO#,#NULO#,60001683165,PARTIDO ISOLADO,PSC,N,1,Válido,1,4,NÃO ELEITO
13110,ALTANEIRA,53,6,Deputado Federal,60001645844,2077,FRANCISCO SERGIO PIRES MONTENEGRO,SERGIO MONTENEGRO,#NULO#,12,APTO,2,DEFERIDO,Partido isolado,20,PSC,Partido Social Cristão,-1,#NULO#,#NULO#,#NULO#,60001683165,PARTIDO ISOLADO,PSC,N,0,Válido,0,4,NÃO ELEITO
15458,SANTA QUITÉRIA,54,6,Deputado Federal,60001645829,2080,MARIA SANDRA DE FREITAS,SANDRA FREITAS,#NULO#,12,APTO,2,DEFERIDO,Partido isolado,20,PSC,Partido Social Cristão,-1,#NULO#,#NULO#,#NULO#,60001683165,PARTIDO ISOLADO,PSC,N,0,Válido,0,4,NÃO ELEITO
14737,MONSENHOR TABOSA,61,6,Deputado Federal,60001645829,2080,MARIA SANDRA DE FREITAS,SANDRA FREITAS,#NULO#,12,APTO,2,DEFERIDO,Partido isolado,20,PSC,Partido Social Cristão,-1,#NULO#,#NULO#,#NULO#,60001683165,PARTIDO ISOLADO,PSC,N,0,Válido,0,4,NÃO ELEITO
13382,BANABUIÚ,6,6,Deputado Federal,60001645829,2080,MARIA SANDRA DE FREITAS,SANDRA FREITAS,#NULO#,12,APTO,2,DEFERIDO,Partido isolado,20,PSC,Partido Social Cristão,-1,#NULO#,#NULO#,#NULO#,60001683165,PARTIDO ISOLADO,PSC,N,0,Válido,0,4,NÃO ELEITO
15733,UBAJARA,73,6,Deputado Federal,60001645829,2080,MARIA SANDRA DE FREITAS,SANDRA FREITAS,#NULO#,12,APTO,2,DEFERIDO,Partido isolado,20,PSC,Partido Social Cristão,-1,#NULO#,#NULO#,#NULO#,60001683165,PARTIDO ISOLADO,PSC,N,0,Válido,0,4,NÃO ELEITO
14834,MULUNGU,5,6,Deputado Federal,60001645830,2012,ISRAEL FROTA DE OLIVEIRA,ISRAEL FROTA,#NULO#,12,APTO,2,DEFERIDO,Partido isolado,20,PSC,Partido Social Cristão,-1,#NULO#,#NULO#,#NULO#,60001683165,PARTIDO ISOLADO,PSC,N,0,Válido,0,4,NÃO ELEITO
15113,PEDRA BRANCA,59,6,Deputado Federal,60001645831,2070,MARIA OGERLANIA FREITAS RAULINO,OGERLANIA FREITAS,#NULO#,12,APTO,2,DEFERIDO,Partido isolado,20,PSC,Partido Social Cristão,-1,#NULO#,#NULO#,#NULO#,60001683165,PARTIDO ISOLADO,PSC,N,0,Válido,0,4,NÃO ELEITO
13005,JIJOCA DE JERICOACOARA,30,6,Deputado Federal,60001645831,2070,MARIA OGERLANIA FREITAS RAULINO,OGERLANIA FREITAS,#NULO#,12,APTO,2,DEFERIDO,Partido isolado,20,PSC,Partido Social Cristão,-1,#NULO#,#NULO#,#NULO#,60001683165,PARTIDO ISOLADO,PSC,N,0,Válido,0,4,NÃO ELEITO
15199,PIQUET CARNEIRO,12,6,Deputado Federal,60001645832,2033,ANDRÉ LUIZ BARBOSA AZEVEDO,ANDRÉ PEZÃO,#NULO#,12,APTO,2,DEFERIDO,Partido isolado,20,PSC,Partido Social Cristão,-1,#NULO#,#NULO#,#NULO#,60001683165,PARTIDO ISOLADO,PSC,N,0,Válido,0,4,NÃO ELEITO
14052,HIDROLÂNDIA,54,6,Deputado Federal,60001645835,2088,MARIA ELIONEIDE RABELO,NEIDE RABELO,#NULO#,12,APTO,2,DEFERIDO,Partido isolado,20,PSC,Partido Social Cristão,-1,#NULO#,#NULO#,#NULO#,60001683165,PARTIDO ISOLADO,PSC,N,0,Válido,0,4,NÃO ELEITO
14656,MERUOCA,24,6,Deputado Federal,60001645837,2011,OTAVIO LEITE LUSTOSA FILHO,JUNIOR LEITE,#NULO#,12,APTO,2,DEFERIDO,Partido isolado,20,PSC,Partido Social Cristão,-1,#NULO#,#NULO#,#NULO#,60001683165,PARTIDO ISOLADO,PSC,N,0,Válido,0,4,NÃO ELEITO
14672,MILAGRES,26,6,Deputado Federal,60001614151,2255,ANTONIO LUIZ RODRIGUES MANO JUNIOR,JÚNIOR MANO,#NULO#,12,APTO,2,DEFERIDO,Partido isolado,22,PL,Partido Liberal,-1,#NULO#,#NULO#,#NULO#,60001681701,PARTIDO ISOLADO,PL,N,82,Válido,82,2,ELEITO POR QP
13595,CARIDADE,111,6,Deputado Federal,60001614151,2255,ANTONIO LUIZ RODRIGUES MANO JUNIOR,JÚNIOR MANO,#NULO#,12,APTO,2,DEFERIDO,Partido isolado,22,PL,Partido Liberal,-1,#NULO#,#NULO#,#NULO#,60001681701,PARTIDO ISOLADO,PL,N,80,Válido,80,2,ELEITO POR QP
14753,MORADA NOVA,47,6,Deputado Federal,60001614152,2227,VERONICA DO AMARAL MADEIRO BATISTA,DRA VERONICA AMARAL,#NULO#,12,APTO,2,DEFERIDO,Partido isolado,22,PL,Partido Liberal,-1,#NULO#,#NULO#,#NULO#,60001681701,PARTIDO ISOLADO,PL,N,6,Válido,6,5,SUPLENTE
15598,SOBRAL,24,6,Deputado Federal,60001614153,2233,MARIA GORETE PEREIRA,GORETE PEREIRA,#NULO#,12,APTO,2,DEFERIDO,Partido isolado,22,PL,Partido Liberal,-1,#NULO#,#NULO#,#NULO#,60001681701,PARTIDO ISOLADO,PL,N,27,Válido,27,5,SUPLENTE
15717,TRAIRI,97,6,Deputado Federal,60001614155,2211,YURY BRUNO ALENCAR ARAÚJO,YURY DO PAREDÃO,#NULO#,12,APTO,2,DEFERIDO,Partido isolado,22,PL,Partido Liberal,-1,#NULO#,#NULO#,#NULO#,60001681701,PARTIDO ISOLADO,PL,N,71,Válido,71,2,ELEITO POR QP
15911,FORQUILHA,121,6,Deputado Federal,60001614156,2256,ANTONIO BATISTA MARQUES,CHIMBINHA CEARENSE,#NULO#,12,APTO,2,DEFERIDO,Partido isolado,22,PL,Partido Liberal,-1,#NULO#,#NULO#,#NULO#,60001681701,PARTIDO ISOLADO,PL,N,0,Válido,0,5,SUPLENTE
13390,BARRO,92,6,Deputado Federal,60001614156,2256,ANTONIO BATISTA MARQUES,CHIMBINHA CEARENSE,#NULO#,12,APTO,2,DEFERIDO,Partido isolado,22,PL,Partido Liberal,-1,#NULO#,#NULO#,#NULO#,60001681701,PARTIDO ISOLADO,PL,N,0,Válido,0,5,SUPLENTE
14990,PACUJÁ,79,6,Deputado Federal,60001614156,2256,ANTONIO BATISTA MARQUES,CHIMBINHA CEARENSE,#NULO#,12,APTO,2,DEFERIDO,Partido isolado,22,PL,Partido Liberal,-1,#NULO#,#NULO#,#NULO#,60001681701,PARTIDO ISOLADO,PL,N,0,Válido,0,5,SUPLENTE
15156,PENTECOSTE,50,6,Deputado Federal,60001614158,2225,FRANCISCO DAS CHAGAS RODRIGUES ALVES,NENEM DA SEFAZ,#NULO#,12,APTO,2,DEFERIDO,Partido isolado,22,PL,Partido Liberal,-1,#NULO#,#NULO#,#NULO#,60001681701,PARTIDO ISOLADO,PL,N,7,Válido,7,5,SUPLENTE
14737,MONSENHOR TABOSA,61,6,Deputado Federal,60001614158,2225,FRANCISCO DAS CHAGAS RODRIGUES ALVES,NENEM DA SEFAZ,#NULO#,12,APTO,2,DEFERIDO,Partido isolado,22,PL,Partido Liberal,-1,#NULO#,#NULO#,#NULO#,60001681701,PARTIDO ISOLADO,PL,N,3,Válido,3,5,SUPLENTE
14370,JAGUARIBARA,72,6,Deputado Federal,60001614159,2220,FRANCISCO DERIVALDO GONÇALVES LIMA,VALDIM GONÇALVES,#NULO#,12,APTO,2,DEFERIDO,Partido isolado,22,PL,Partido Liberal,-1,#NULO#,#NULO#,#NULO#,60001681701,PARTIDO ISOLADO,PL,N,0,Válido,0,5,SUPLENTE